{
        "OwnerID":"YOURID",
        "Prefix":"?",
        "Devel":"False",
        "DiscordToken":"Discord KEY",
        "WargamingToken":"WG KEY",
        "WargamingCollectorToken":"WG KEY",
        "DiscordBotsToken":"discordbots.org KEY",
        "DiscordBotsPWToken":"bots.discord.pw KEY",
        "DiscordListToken":"discordlist.net KEY",
        "WebHelpDataFile":"data.js",
        "Logging":"INFO",
        "ProfileMemory":"True",
        "DashboardReceiverUrl":"",
        "DashboardResponderUrl":"",
        "DashboardKey":"",
        "DashboardServerID":"",
        "DashboardChannelID":"",
        "DashboardAuthorID": "",
        "Plugins":[
                "config",
                "join",
                "invite",
                "blitztype",
                "medals",
                "clanmedals",
                "bsig",
                "clanactivity",
                "bstats",
                "wstats",
                "rstats",
                "wstatsm",
                "rstatsm",
                "mastery",
                "platoon",
                "clanwstats",
                "clanrstats",
                "unicum",
                "servers",
                "denoob",
                "winrate",
                "botstats",
                "listsaves",
                "clanplayerscharts",
                "clanwinrate",
                "statslist",
                "rstatslistm",
                "wstatslist",
                "aceheroes",
                "ping",
                "help",
                "tools",
                "clanrating",
                "whisper",
                "webhelp",
                "daily",
                "replays",
                "mash",
                "tanks"
                ]
}
